<svg width="12" height="13" viewBox="0 0 12 13" fill="none" xmlns="http://www.w3.org/2000/svg">
<path d="M6 0.5L4.9425 1.5575L9.1275 5.75H0V7.25H9.1275L4.9425 11.4425L6 12.5L12 6.5L6 0.5Z" fill="black"/>
</svg>
