<?xml version="1.0" encoding="utf-8"?>
<!-- Generator: Adobe Illustrator 26.0.1, SVG Export Plug-In . SVG Version: 6.00 Build 0)  -->
<svg version="1.1" id="Laag_1" xmlns="http://www.w3.org/2000/svg" xmlns:xlink="http://www.w3.org/1999/xlink" x="0px" y="0px"
	 viewBox="0 0 240.3 263.3" style="enable-background:new 0 0 240.3 263.3;" xml:space="preserve">
<style type="text/css">
	.st0{fill:#FFFFFF;}
</style>
<path class="st0" d="M77.8,43.3L0,22.6V220l162.6,43.3l77.7-20.7V0L77.8,43.3z M86.7,105.1H62v25.4h19.9v12.6H62v26.8h24.7v12.6
	H48.4v-90h38.3V105.1z M138.9,105.1l-24.1-0.1v25.5h19.3v12.6h-19.3v39.4h-13.6v-90h37.7V105.1z M192,114.9
	c0,8.7-2.6,16.3-11.2,30.2l-15.2,24.3H192v12.9h-41.9v-11.6l20.2-32.5c6.3-10.2,8.1-16.5,8.1-23.8v-1.8c0-5.9-2.6-9-7.6-9
	s-7.6,3.1-7.6,10.7v4.5l-13.1-0.6V112c0-13.2,7.8-21,21-21c13,0.1,20.9,7.7,20.9,20.6L192,114.9L192,114.9z"/>
</svg>
