{
    "key": "group_62f39db03d5ed",
    "title": "Flex content",
    "fields": [
        {
            "key": "field_62f39db46dead",
            "label": "Flex content",
            "name": "flex_content_wrapper",
            "type": "flexible_content",
            "instructions": "",
            "required": 0,
            "conditional_logic": 0,
            "wrapper": {
                "width": "",
                "class": "",
                "id": ""
            },
            "layouts": {
                "layout_62f39dfb17a22": {
                    "key": "layout_62f39dfb17a22",
                    "name": "flex_text_block",
                    "label": "Tekstblok",
                    "display": "block",
                    "sub_fields": [
                        {
                            "key": "field_62f3a403ecfe3",
                            "label": "Body",
                            "name": "body",
                            "type": "wysiwyg",
                            "instructions": "",
                            "required": 0,
                            "conditional_logic": 0,
                            "wrapper": {
                                "width": "",
                                "class": "",
                                "id": ""
                            },
                            "default_value": "",
                            "tabs": "all",
                            "toolbar": "full",
                            "media_upload": 1,
                            "delay": 0
                        },
                        {
                            "key": "field_62f3a4c0ecfe8",
                            "label": "Achtergrondkleur",
                            "name": "has_bg",
                            "type": "true_false",
                            "instructions": "",
                            "required": 0,
                            "conditional_logic": 0,
                            "wrapper": {
                                "width": "",
                                "class": "",
                                "id": ""
                            },
                            "message": "",
                            "default_value": 0,
                            "ui": 0,
                            "ui_on_text": "",
                            "ui_off_text": ""
                        },
                        {
                            "key": "field_62fc9a9525ad7",
                            "label": "Gecentreerd",
                            "name": "is_centered",
                            "type": "true_false",
                            "instructions": "",
                            "required": 0,
                            "conditional_logic": 0,
                            "wrapper": {
                                "width": "",
                                "class": "",
                                "id": ""
                            },
                            "message": "",
                            "default_value": 0,
                            "ui": 0,
                            "ui_on_text": "",
                            "ui_off_text": ""
                        }
                    ],
                    "min": "",
                    "max": ""
                },
                "layout_62f3a423ecfe4": {
                    "key": "layout_62f3a423ecfe4",
                    "name": "flex_image_with_text",
                    "label": "Afbeelding met tekst",
                    "display": "block",
                    "sub_fields": [
                        {
                            "key": "field_62f3a482ecfe6",
                            "label": "Afbeelding",
                            "name": "image",
                            "type": "image",
                            "instructions": "",
                            "required": 0,
                            "conditional_logic": 0,
                            "wrapper": {
                                "width": "",
                                "class": "",
                                "id": ""
                            },
                            "return_format": "array",
                            "preview_size": "medium",
                            "library": "all",
                            "min_width": 200,
                            "min_height": 200,
                            "min_size": "",
                            "max_width": "",
                            "max_height": "",
                            "max_size": 4,
                            "mime_types": ""
                        },
                        {
                            "key": "field_62f3a477ecfe5",
                            "label": "Body",
                            "name": "body",
                            "type": "wysiwyg",
                            "instructions": "",
                            "required": 0,
                            "conditional_logic": 0,
                            "wrapper": {
                                "width": "",
                                "class": "",
                                "id": ""
                            },
                            "default_value": "",
                            "tabs": "all",
                            "toolbar": "full",
                            "media_upload": 1,
                            "delay": 0
                        },
                        {
                            "key": "field_62f3a499ecfe7",
                            "label": "Afbeelding rechts?",
                            "name": "reverse_order",
                            "type": "true_false",
                            "instructions": "",
                            "required": 0,
                            "conditional_logic": 0,
                            "wrapper": {
                                "width": "",
                                "class": "",
                                "id": ""
                            },
                            "message": "",
                            "default_value": 0,
                            "ui": 0,
                            "ui_on_text": "",
                            "ui_off_text": ""
                        },
                        {
                            "key": "field_62f3ab39d5d2f",
                            "label": "Achtergrondkleur",
                            "name": "has_bg",
                            "type": "true_false",
                            "instructions": "",
                            "required": 0,
                            "conditional_logic": 0,
                            "wrapper": {
                                "width": "",
                                "class": "",
                                "id": ""
                            },
                            "message": "",
                            "default_value": 0,
                            "ui": 0,
                            "ui_on_text": "",
                            "ui_off_text": ""
                        }
                    ],
                    "min": "",
                    "max": ""
                },
                "layout_62f3a5aaecfee": {
                    "key": "layout_62f3a5aaecfee",
                    "name": "flex_teasers",
                    "label": "Teasers",
                    "display": "block",
                    "sub_fields": [
                        {
                            "key": "field_62f3a5afecfef",
                            "label": "Intro tekst",
                            "name": "body",
                            "type": "wysiwyg",
                            "instructions": "",
                            "required": 0,
                            "conditional_logic": 0,
                            "wrapper": {
                                "width": "",
                                "class": "",
                                "id": ""
                            },
                            "default_value": "",
                            "tabs": "all",
                            "toolbar": "full",
                            "media_upload": 1,
                            "delay": 0
                        },
                        {
                            "key": "field_62f3a5e0ecff0",
                            "label": "Teasers",
                            "name": "teasers",
                            "type": "post_object",
                            "instructions": "",
                            "required": 0,
                            "conditional_logic": 0,
                            "wrapper": {
                                "width": "",
                                "class": "",
                                "id": ""
                            },
                            "post_type": "",
                            "taxonomy": "",
                            "allow_null": 0,
                            "multiple": 1,
                            "return_format": "object",
                            "ui": 1
                        },
                        {
                            "key": "field_62fce6dbdb508",
                            "label": "Achtergrondkleur",
                            "name": "has_bg",
                            "type": "true_false",
                            "instructions": "",
                            "required": 0,
                            "conditional_logic": 0,
                            "wrapper": {
                                "width": "",
                                "class": "",
                                "id": ""
                            },
                            "message": "",
                            "default_value": 0,
                            "ui": 0,
                            "ui_on_text": "",
                            "ui_off_text": ""
                        }
                    ],
                    "min": "",
                    "max": ""
                },
                "layout_62f3a4dbecfe9": {
                    "key": "layout_62f3a4dbecfe9",
                    "name": "flex_image_full_width",
                    "label": "Afbeelding volle breedte",
                    "display": "block",
                    "sub_fields": [
                        {
                            "key": "field_62f3a4edecfea",
                            "label": "Afbeelding",
                            "name": "image",
                            "type": "image",
                            "instructions": "",
                            "required": 0,
                            "conditional_logic": 0,
                            "wrapper": {
                                "width": "",
                                "class": "",
                                "id": ""
                            },
                            "return_format": "array",
                            "preview_size": "medium",
                            "library": "all",
                            "min_width": 300,
                            "min_height": 300,
                            "min_size": "",
                            "max_width": "",
                            "max_height": "",
                            "max_size": 4,
                            "mime_types": ""
                        }
                    ],
                    "min": "",
                    "max": ""
                },
                "layout_62f3a504ecfeb": {
                    "key": "layout_62f3a504ecfeb",
                    "name": "flex_quote",
                    "label": "Quote",
                    "display": "block",
                    "sub_fields": [
                        {
                            "key": "field_62f3a596ecfed",
                            "label": "Body",
                            "name": "body",
                            "type": "wysiwyg",
                            "instructions": "",
                            "required": 0,
                            "conditional_logic": 0,
                            "wrapper": {
                                "width": "",
                                "class": "",
                                "id": ""
                            },
                            "default_value": "",
                            "tabs": "all",
                            "toolbar": "full",
                            "media_upload": 1,
                            "delay": 0
                        },
                        {
                            "key": "field_62f3a50aecfec",
                            "label": "Achtergrondafbeelding",
                            "name": "background_image",
                            "type": "image",
                            "instructions": "",
                            "required": 0,
                            "conditional_logic": 0,
                            "wrapper": {
                                "width": "",
                                "class": "",
                                "id": ""
                            },
                            "return_format": "array",
                            "preview_size": "medium",
                            "library": "all",
                            "min_width": 300,
                            "min_height": 300,
                            "min_size": "",
                            "max_width": "",
                            "max_height": "",
                            "max_size": 4,
                            "mime_types": ""
                        }
                    ],
                    "min": "",
                    "max": ""
                }
            },
            "button_label": "Nieuw blok",
            "min": "",
            "max": ""
        }
    ],
    "location": [
        [
            {
                "param": "page_template",
                "operator": "==",
                "value": "default"
            }
        ],
        [
            {
                "param": "post_type",
                "operator": "==",
                "value": "case"
            }
        ]
    ],
    "menu_order": -1,
    "position": "normal",
    "style": "default",
    "label_placement": "top",
    "instruction_placement": "label",
    "hide_on_screen": "",
    "active": true,
    "description": "",
    "show_in_rest": 0,
    "modified": 1661240906
}